<?xml version="1.0" encoding="UTF-8" standalone="no"?>
<svg width="16px" height="16px" viewBox="0 0 16 16" version="1.1" xmlns="http://www.w3.org/2000/svg" xmlns:xlink="http://www.w3.org/1999/xlink" xmlns:sketch="http://www.bohemiancoding.com/sketch/ns">
    <!-- Generator: Sketch 3.1.1 (8761) - http://www.bohemiancoding.com/sketch -->
    <title>close</title>
    <desc>Created with Sketch.</desc>
    <defs></defs>
    <g id="Page-1" stroke="none" stroke-width="1" fill="none" fill-rule="evenodd" sketch:type="MSPage">
        <g id="close" sketch:type="MSArtboardGroup" fill="#000000">
            <path d="M12.5934325,15.2498406 C13.1664809,15.848094 14.1160085,15.8685266 14.7142619,15.2954783 C15.3125152,14.7224299 15.3329479,13.7729022 14.7598995,13.1746489 L3.51990012,1.44026912 C2.94685175,0.842015773 1.9973241,0.821583106 1.39907075,1.39463148 C0.800817407,1.96767985 0.78038474,2.9172075 1.35343311,3.51546085 L12.5934325,15.2498406 Z" id="Path-66" sketch:type="MSShapeGroup"></path>
            <path d="M1.24010049,13.1746489 C0.667052119,13.7729022 0.687484786,14.7224299 1.28573813,15.2954783 C1.88399148,15.8685266 2.83351913,15.848094 3.4065675,15.2498406 L14.6465669,3.51546085 C15.2196153,2.9172075 15.1991826,1.96767985 14.6009292,1.39463148 C14.0026759,0.821583106 13.0531483,0.842015773 12.4800999,1.44026912 L1.24010049,13.1746489 Z" id="Path-67" sketch:type="MSShapeGroup"></path>
        </g>
    </g>
</svg>